[
  { "directory": "/home/heisenberg/Qt-workspace/ClangSimilarityFinder",
    "command": "clang++ ./test/test3.cpp -resource-dir /home/heisenberg/Documents/clang-llvm/build/lib/clang/3.7.0 -std=c++11",
    "file": "./test/test3.cpp" },
  { "directory": "/home/heisenberg/Qt-workspace/ClangSimilarityFinder/test",
    "command": "clang++ test2.cpp -resource-dir /home/heisenberg/Documents/clang-llvm/build/lib/clang/3.7.0 -std=c++11",
    "file": "test2.cpp" },
  { "directory": "/home/heisenberg/Qt-workspace/ClangSimilarityFinder/test",
    "command": "clang++ test1.cpp -resource-dir /home/heisenberg/Documents/clang-llvm/build/lib/clang/3.7.0 -std=c++11",
    "file": "test1.cpp" },
  { "directory": "/home/heisenberg/Qt-workspace/ClangSimilarityFinder/test",
    "command": "clang++ MatrixMultiplication.cpp -resource-dir /home/heisenberg/Documents/clang-llvm/build/lib/clang/3.7.0 -std=c++11",
    "file": "MatrixMultiplication.cpp" },
  { "directory": "/home/heisenberg/Qt-workspace/ClangSimilarityFinder",
    "command": "clang++ ./test/cblas/test_blas.cpp -resource-dir /home/heisenberg/Documents/clang-llvm/build/lib/clang/3.7.0 -std=c++11",
    "file": "./test/cblas/test_blas.cpp" },
  { "directory": "/home/heisenberg/Qt-workspace/ClangSimilarityFinder",
    "command": "clang++ ./test/464.h264ref/src/lencod.c -resource-dir /home/heisenberg/Documents/clang-llvm/build/lib/clang/3.7.0",
    "file": "./test/464.h264ref/src/lencod.c" }
]
